<?xml version="1.0" encoding="UTF-8" standalone="no"?>
<!-- Created with Inkscape (http://www.inkscape.org/) -->

<svg
   xmlns:dc="http://purl.org/dc/elements/1.1/"
   xmlns:cc="http://creativecommons.org/ns#"
   xmlns:rdf="http://www.w3.org/1999/02/22-rdf-syntax-ns#"
   xmlns:svg="http://www.w3.org/2000/svg"
   xmlns="http://www.w3.org/2000/svg"
   xmlns:sodipodi="http://sodipodi.sourceforge.net/DTD/sodipodi-0.dtd"
   xmlns:inkscape="http://www.inkscape.org/namespaces/inkscape"
   width="6.20889mm"
   height="6.2088914mm"
   viewBox="0 0 22.000004 22.000009"
   id="svg4231"
   version="1.1"
   inkscape:version="0.91 r"
   inkscape:export-filename="/run/user/1000/gvfs/sftp:host=unknown.name/var/www/dev/passon/public/assets/img/favicon.ico"
   inkscape:export-xdpi="130.90904"
   inkscape:export-ydpi="130.90904"
   sodipodi:docname="passonLogo.svg">
  <defs
     id="defs4233" />
  <sodipodi:namedview
     id="base"
     pagecolor="#ffffff"
     bordercolor="#666666"
     borderopacity="1.0"
     inkscape:pageopacity="0.0"
     inkscape:pageshadow="2"
     inkscape:zoom="22.627417"
     inkscape:cx="0.4434791"
     inkscape:cy="14.440098"
     inkscape:document-units="px"
     inkscape:current-layer="layer1"
     showgrid="false"
     fit-margin-top="0"
     fit-margin-left="0"
     fit-margin-right="0"
     fit-margin-bottom="0"
     inkscape:window-width="1871"
     inkscape:window-height="1056"
     inkscape:window-x="49"
     inkscape:window-y="24"
     inkscape:window-maximized="1" />
  <metadata
     id="metadata4236">
    <rdf:RDF>
      <cc:Work
         rdf:about="">
        <dc:format>image/svg+xml</dc:format>
        <dc:type
           rdf:resource="http://purl.org/dc/dcmitype/StillImage" />
        <dc:title />
      </cc:Work>
    </rdf:RDF>
  </metadata>
  <g
     inkscape:label="Layer 1"
     inkscape:groupmode="layer"
     id="layer1"
     transform="translate(-304.16758,-368.6006)">
    <rect
       y="368.60062"
       x="304.1676"
       height="21.999994"
       width="21.999954"
       id="rect3005"
       style="fill:#4488cc;fill-opacity:1;stroke-width:0.1;stroke-miterlimit:4;stroke-dasharray:none"
       rx="2.2980971"
       ry="2.2980971" />
    <rect
       transform="matrix(0.96592571,0.25881949,-0.25881861,0.96592594,0,0)"
       y="276.11301"
       x="393.69482"
       height="17.962917"
       width="17.962891"
       id="rect3005-1"
       style="fill:#ffffff;fill-opacity:0.53333336" />
    <rect
       transform="matrix(0.70710616,0.7071074,-0.70710616,0.7071074,0,0)"
       y="37.782444"
       x="483.49707"
       height="15.556332"
       width="15.556332"
       id="rect3005-1-3"
       style="fill:#ffffff;fill-opacity:1" />
  </g>
</svg>
